{
  "mitarbeiter": {
    "personalnummer": "",
    "name": "",
    "buchungen": [
      {
        "datum": "2022-01-01",
        "beginn": "2022-01-01 00:00:00",
        "ende": "2022-01-01 00:00:01",
        "dauer": 5,
        "kostenstelle": "",
        "verrechenbar": true
      },
      {
        "datum": "2022-01-01",
        "beginn": "2022-01-01 00:00:02",
        "ende": "2022-01-01 00:00:03",
        "dauer": 5,
        "kostenstelle": "",
        "verrechenbar": true
      }
    ]
  }
}
